<!-- svg by MarsCat -->
<svg xmlns="http://www.w3.org/2000/svg" width="16" height="16" viewBox="0 0 16 16" fill="#808080" stroke="#ffffff" stroke-width="0.125">
  <path d="m 14,7 1,-1 v 8 H 0 V 4 C 0,4 0,2 2,2 4,2 2,2 4,2 6,2 6,4 6,4 h 7 L 12,5 H 1 v 8 h 13 z m -1,-4 1,1 -3,3 1,1 3,-3 1,1 V 3 Z" />
</svg>